%!PS-Adobe-2.0 EPSF-2.0
%%Title: energy_Cr2_2z_28e.eps
%%Creator: gnuplot 4.6 patchlevel 4
%%CreationDate: Mon Oct 16 09:29:33 2017
%%DocumentFonts: (atend)
%%BoundingBox: 50 50 410 302
%%EndComments
%%BeginProlog
/gnudict 256 dict def
gnudict begin
%
% The following true/false flags may be edited by hand if desired.
% The unit line width and grayscale image gamma correction may also be changed.
%
/Color true def
/Blacktext false def
/Solid true def
/Dashlength 1 def
/Landscape false def
/Level1 false def
/Rounded false def
/ClipToBoundingBox false def
/SuppressPDFMark false def
/TransparentPatterns false def
/gnulinewidth 5.000 def
/userlinewidth gnulinewidth def
/Gamma 1.0 def
/BackgroundColor {-1.000 -1.000 -1.000} def
%
/vshift -66 def
/dl1 {
  10.0 Dashlength mul mul
  Rounded { currentlinewidth 0.75 mul sub dup 0 le { pop 0.01 } if } if
} def
/dl2 {
  10.0 Dashlength mul mul
  Rounded { currentlinewidth 0.75 mul add } if
} def
/hpt_ 31.5 def
/vpt_ 31.5 def
/hpt hpt_ def
/vpt vpt_ def
/doclip {
  ClipToBoundingBox {
    newpath 50 50 moveto 410 50 lineto 410 302 lineto 50 302 lineto closepath
    clip
  } if
} def
%
% Gnuplot Prolog Version 4.6 (September 2012)
%
%/SuppressPDFMark true def
%
/M {moveto} bind def
/L {lineto} bind def
/R {rmoveto} bind def
/V {rlineto} bind def
/N {newpath moveto} bind def
/Z {closepath} bind def
/C {setrgbcolor} bind def
/f {rlineto fill} bind def
/g {setgray} bind def
/Gshow {show} def   % May be redefined later in the file to support UTF-8
/vpt2 vpt 2 mul def
/hpt2 hpt 2 mul def
/Lshow {currentpoint stroke M 0 vshift R 
	Blacktext {gsave 0 setgray show grestore} {show} ifelse} def
/Rshow {currentpoint stroke M dup stringwidth pop neg vshift R
	Blacktext {gsave 0 setgray show grestore} {show} ifelse} def
/Cshow {currentpoint stroke M dup stringwidth pop -2 div vshift R 
	Blacktext {gsave 0 setgray show grestore} {show} ifelse} def
/UP {dup vpt_ mul /vpt exch def hpt_ mul /hpt exch def
  /hpt2 hpt 2 mul def /vpt2 vpt 2 mul def} def
/DL {Color {setrgbcolor Solid {pop []} if 0 setdash}
 {pop pop pop 0 setgray Solid {pop []} if 0 setdash} ifelse} def
/BL {stroke userlinewidth 2 mul setlinewidth
	Rounded {1 setlinejoin 1 setlinecap} if} def
/AL {stroke userlinewidth 2 div setlinewidth
	Rounded {1 setlinejoin 1 setlinecap} if} def
/UL {dup gnulinewidth mul /userlinewidth exch def
	dup 1 lt {pop 1} if 10 mul /udl exch def} def
/PL {stroke userlinewidth setlinewidth
	Rounded {1 setlinejoin 1 setlinecap} if} def
3.8 setmiterlimit
% Default Line colors
/LCw {1 1 1} def
/LCb {0 0 0} def
/LCa {0 0 0} def
/LC0 {1 0 0} def
/LC1 {0 1 0} def
/LC2 {0 0 1} def
/LC3 {1 0 1} def
/LC4 {0 1 1} def
/LC5 {1 1 0} def
/LC6 {0 0 0} def
/LC7 {1 0.3 0} def
/LC8 {0.5 0.5 0.5} def
% Default Line Types
/LTw {PL [] 1 setgray} def
/LTb {BL [] LCb DL} def
/LTa {AL [1 udl mul 2 udl mul] 0 setdash LCa setrgbcolor} def
/LT0 {PL [] LC0 DL} def
/LT1 {PL [4 dl1 2 dl2] LC1 DL} def
/LT2 {PL [2 dl1 3 dl2] LC2 DL} def
/LT3 {PL [1 dl1 1.5 dl2] LC3 DL} def
/LT4 {PL [6 dl1 2 dl2 1 dl1 2 dl2] LC4 DL} def
/LT5 {PL [3 dl1 3 dl2 1 dl1 3 dl2] LC5 DL} def
/LT6 {PL [2 dl1 2 dl2 2 dl1 6 dl2] LC6 DL} def
/LT7 {PL [1 dl1 2 dl2 6 dl1 2 dl2 1 dl1 2 dl2] LC7 DL} def
/LT8 {PL [2 dl1 2 dl2 2 dl1 2 dl2 2 dl1 2 dl2 2 dl1 4 dl2] LC8 DL} def
/Pnt {stroke [] 0 setdash gsave 1 setlinecap M 0 0 V stroke grestore} def
/Dia {stroke [] 0 setdash 2 copy vpt add M
  hpt neg vpt neg V hpt vpt neg V
  hpt vpt V hpt neg vpt V closepath stroke
  Pnt} def
/Pls {stroke [] 0 setdash vpt sub M 0 vpt2 V
  currentpoint stroke M
  hpt neg vpt neg R hpt2 0 V stroke
 } def
/Box {stroke [] 0 setdash 2 copy exch hpt sub exch vpt add M
  0 vpt2 neg V hpt2 0 V 0 vpt2 V
  hpt2 neg 0 V closepath stroke
  Pnt} def
/Crs {stroke [] 0 setdash exch hpt sub exch vpt add M
  hpt2 vpt2 neg V currentpoint stroke M
  hpt2 neg 0 R hpt2 vpt2 V stroke} def
/TriU {stroke [] 0 setdash 2 copy vpt 1.12 mul add M
  hpt neg vpt -1.62 mul V
  hpt 2 mul 0 V
  hpt neg vpt 1.62 mul V closepath stroke
  Pnt} def
/Star {2 copy Pls Crs} def
/BoxF {stroke [] 0 setdash exch hpt sub exch vpt add M
  0 vpt2 neg V hpt2 0 V 0 vpt2 V
  hpt2 neg 0 V closepath fill} def
/TriUF {stroke [] 0 setdash vpt 1.12 mul add M
  hpt neg vpt -1.62 mul V
  hpt 2 mul 0 V
  hpt neg vpt 1.62 mul V closepath fill} def
/TriD {stroke [] 0 setdash 2 copy vpt 1.12 mul sub M
  hpt neg vpt 1.62 mul V
  hpt 2 mul 0 V
  hpt neg vpt -1.62 mul V closepath stroke
  Pnt} def
/TriDF {stroke [] 0 setdash vpt 1.12 mul sub M
  hpt neg vpt 1.62 mul V
  hpt 2 mul 0 V
  hpt neg vpt -1.62 mul V closepath fill} def
/DiaF {stroke [] 0 setdash vpt add M
  hpt neg vpt neg V hpt vpt neg V
  hpt vpt V hpt neg vpt V closepath fill} def
/Pent {stroke [] 0 setdash 2 copy gsave
  translate 0 hpt M 4 {72 rotate 0 hpt L} repeat
  closepath stroke grestore Pnt} def
/PentF {stroke [] 0 setdash gsave
  translate 0 hpt M 4 {72 rotate 0 hpt L} repeat
  closepath fill grestore} def
/Circle {stroke [] 0 setdash 2 copy
  hpt 0 360 arc stroke Pnt} def
/CircleF {stroke [] 0 setdash hpt 0 360 arc fill} def
/C0 {BL [] 0 setdash 2 copy moveto vpt 90 450 arc} bind def
/C1 {BL [] 0 setdash 2 copy moveto
	2 copy vpt 0 90 arc closepath fill
	vpt 0 360 arc closepath} bind def
/C2 {BL [] 0 setdash 2 copy moveto
	2 copy vpt 90 180 arc closepath fill
	vpt 0 360 arc closepath} bind def
/C3 {BL [] 0 setdash 2 copy moveto
	2 copy vpt 0 180 arc closepath fill
	vpt 0 360 arc closepath} bind def
/C4 {BL [] 0 setdash 2 copy moveto
	2 copy vpt 180 270 arc closepath fill
	vpt 0 360 arc closepath} bind def
/C5 {BL [] 0 setdash 2 copy moveto
	2 copy vpt 0 90 arc
	2 copy moveto
	2 copy vpt 180 270 arc closepath fill
	vpt 0 360 arc} bind def
/C6 {BL [] 0 setdash 2 copy moveto
	2 copy vpt 90 270 arc closepath fill
	vpt 0 360 arc closepath} bind def
/C7 {BL [] 0 setdash 2 copy moveto
	2 copy vpt 0 270 arc closepath fill
	vpt 0 360 arc closepath} bind def
/C8 {BL [] 0 setdash 2 copy moveto
	2 copy vpt 270 360 arc closepath fill
	vpt 0 360 arc closepath} bind def
/C9 {BL [] 0 setdash 2 copy moveto
	2 copy vpt 270 450 arc closepath fill
	vpt 0 360 arc closepath} bind def
/C10 {BL [] 0 setdash 2 copy 2 copy moveto vpt 270 360 arc closepath fill
	2 copy moveto
	2 copy vpt 90 180 arc closepath fill
	vpt 0 360 arc closepath} bind def
/C11 {BL [] 0 setdash 2 copy moveto
	2 copy vpt 0 180 arc closepath fill
	2 copy moveto
	2 copy vpt 270 360 arc closepath fill
	vpt 0 360 arc closepath} bind def
/C12 {BL [] 0 setdash 2 copy moveto
	2 copy vpt 180 360 arc closepath fill
	vpt 0 360 arc closepath} bind def
/C13 {BL [] 0 setdash 2 copy moveto
	2 copy vpt 0 90 arc closepath fill
	2 copy moveto
	2 copy vpt 180 360 arc closepath fill
	vpt 0 360 arc closepath} bind def
/C14 {BL [] 0 setdash 2 copy moveto
	2 copy vpt 90 360 arc closepath fill
	vpt 0 360 arc} bind def
/C15 {BL [] 0 setdash 2 copy vpt 0 360 arc closepath fill
	vpt 0 360 arc closepath} bind def
/Rec {newpath 4 2 roll moveto 1 index 0 rlineto 0 exch rlineto
	neg 0 rlineto closepath} bind def
/Square {dup Rec} bind def
/Bsquare {vpt sub exch vpt sub exch vpt2 Square} bind def
/S0 {BL [] 0 setdash 2 copy moveto 0 vpt rlineto BL Bsquare} bind def
/S1 {BL [] 0 setdash 2 copy vpt Square fill Bsquare} bind def
/S2 {BL [] 0 setdash 2 copy exch vpt sub exch vpt Square fill Bsquare} bind def
/S3 {BL [] 0 setdash 2 copy exch vpt sub exch vpt2 vpt Rec fill Bsquare} bind def
/S4 {BL [] 0 setdash 2 copy exch vpt sub exch vpt sub vpt Square fill Bsquare} bind def
/S5 {BL [] 0 setdash 2 copy 2 copy vpt Square fill
	exch vpt sub exch vpt sub vpt Square fill Bsquare} bind def
/S6 {BL [] 0 setdash 2 copy exch vpt sub exch vpt sub vpt vpt2 Rec fill Bsquare} bind def
/S7 {BL [] 0 setdash 2 copy exch vpt sub exch vpt sub vpt vpt2 Rec fill
	2 copy vpt Square fill Bsquare} bind def
/S8 {BL [] 0 setdash 2 copy vpt sub vpt Square fill Bsquare} bind def
/S9 {BL [] 0 setdash 2 copy vpt sub vpt vpt2 Rec fill Bsquare} bind def
/S10 {BL [] 0 setdash 2 copy vpt sub vpt Square fill 2 copy exch vpt sub exch vpt Square fill
	Bsquare} bind def
/S11 {BL [] 0 setdash 2 copy vpt sub vpt Square fill 2 copy exch vpt sub exch vpt2 vpt Rec fill
	Bsquare} bind def
/S12 {BL [] 0 setdash 2 copy exch vpt sub exch vpt sub vpt2 vpt Rec fill Bsquare} bind def
/S13 {BL [] 0 setdash 2 copy exch vpt sub exch vpt sub vpt2 vpt Rec fill
	2 copy vpt Square fill Bsquare} bind def
/S14 {BL [] 0 setdash 2 copy exch vpt sub exch vpt sub vpt2 vpt Rec fill
	2 copy exch vpt sub exch vpt Square fill Bsquare} bind def
/S15 {BL [] 0 setdash 2 copy Bsquare fill Bsquare} bind def
/D0 {gsave translate 45 rotate 0 0 S0 stroke grestore} bind def
/D1 {gsave translate 45 rotate 0 0 S1 stroke grestore} bind def
/D2 {gsave translate 45 rotate 0 0 S2 stroke grestore} bind def
/D3 {gsave translate 45 rotate 0 0 S3 stroke grestore} bind def
/D4 {gsave translate 45 rotate 0 0 S4 stroke grestore} bind def
/D5 {gsave translate 45 rotate 0 0 S5 stroke grestore} bind def
/D6 {gsave translate 45 rotate 0 0 S6 stroke grestore} bind def
/D7 {gsave translate 45 rotate 0 0 S7 stroke grestore} bind def
/D8 {gsave translate 45 rotate 0 0 S8 stroke grestore} bind def
/D9 {gsave translate 45 rotate 0 0 S9 stroke grestore} bind def
/D10 {gsave translate 45 rotate 0 0 S10 stroke grestore} bind def
/D11 {gsave translate 45 rotate 0 0 S11 stroke grestore} bind def
/D12 {gsave translate 45 rotate 0 0 S12 stroke grestore} bind def
/D13 {gsave translate 45 rotate 0 0 S13 stroke grestore} bind def
/D14 {gsave translate 45 rotate 0 0 S14 stroke grestore} bind def
/D15 {gsave translate 45 rotate 0 0 S15 stroke grestore} bind def
/DiaE {stroke [] 0 setdash vpt add M
  hpt neg vpt neg V hpt vpt neg V
  hpt vpt V hpt neg vpt V closepath stroke} def
/BoxE {stroke [] 0 setdash exch hpt sub exch vpt add M
  0 vpt2 neg V hpt2 0 V 0 vpt2 V
  hpt2 neg 0 V closepath stroke} def
/TriUE {stroke [] 0 setdash vpt 1.12 mul add M
  hpt neg vpt -1.62 mul V
  hpt 2 mul 0 V
  hpt neg vpt 1.62 mul V closepath stroke} def
/TriDE {stroke [] 0 setdash vpt 1.12 mul sub M
  hpt neg vpt 1.62 mul V
  hpt 2 mul 0 V
  hpt neg vpt -1.62 mul V closepath stroke} def
/PentE {stroke [] 0 setdash gsave
  translate 0 hpt M 4 {72 rotate 0 hpt L} repeat
  closepath stroke grestore} def
/CircE {stroke [] 0 setdash 
  hpt 0 360 arc stroke} def
/Opaque {gsave closepath 1 setgray fill grestore 0 setgray closepath} def
/DiaW {stroke [] 0 setdash vpt add M
  hpt neg vpt neg V hpt vpt neg V
  hpt vpt V hpt neg vpt V Opaque stroke} def
/BoxW {stroke [] 0 setdash exch hpt sub exch vpt add M
  0 vpt2 neg V hpt2 0 V 0 vpt2 V
  hpt2 neg 0 V Opaque stroke} def
/TriUW {stroke [] 0 setdash vpt 1.12 mul add M
  hpt neg vpt -1.62 mul V
  hpt 2 mul 0 V
  hpt neg vpt 1.62 mul V Opaque stroke} def
/TriDW {stroke [] 0 setdash vpt 1.12 mul sub M
  hpt neg vpt 1.62 mul V
  hpt 2 mul 0 V
  hpt neg vpt -1.62 mul V Opaque stroke} def
/PentW {stroke [] 0 setdash gsave
  translate 0 hpt M 4 {72 rotate 0 hpt L} repeat
  Opaque stroke grestore} def
/CircW {stroke [] 0 setdash 
  hpt 0 360 arc Opaque stroke} def
/BoxFill {gsave Rec 1 setgray fill grestore} def
/Density {
  /Fillden exch def
  currentrgbcolor
  /ColB exch def /ColG exch def /ColR exch def
  /ColR ColR Fillden mul Fillden sub 1 add def
  /ColG ColG Fillden mul Fillden sub 1 add def
  /ColB ColB Fillden mul Fillden sub 1 add def
  ColR ColG ColB setrgbcolor} def
/BoxColFill {gsave Rec PolyFill} def
/PolyFill {gsave Density fill grestore grestore} def
/h {rlineto rlineto rlineto gsave closepath fill grestore} bind def
%
% PostScript Level 1 Pattern Fill routine for rectangles
% Usage: x y w h s a XX PatternFill
%	x,y = lower left corner of box to be filled
%	w,h = width and height of box
%	  a = angle in degrees between lines and x-axis
%	 XX = 0/1 for no/yes cross-hatch
%
/PatternFill {gsave /PFa [ 9 2 roll ] def
  PFa 0 get PFa 2 get 2 div add PFa 1 get PFa 3 get 2 div add translate
  PFa 2 get -2 div PFa 3 get -2 div PFa 2 get PFa 3 get Rec
  TransparentPatterns {} {gsave 1 setgray fill grestore} ifelse
  clip
  currentlinewidth 0.5 mul setlinewidth
  /PFs PFa 2 get dup mul PFa 3 get dup mul add sqrt def
  0 0 M PFa 5 get rotate PFs -2 div dup translate
  0 1 PFs PFa 4 get div 1 add floor cvi
	{PFa 4 get mul 0 M 0 PFs V} for
  0 PFa 6 get ne {
	0 1 PFs PFa 4 get div 1 add floor cvi
	{PFa 4 get mul 0 2 1 roll M PFs 0 V} for
 } if
  stroke grestore} def
%
/languagelevel where
 {pop languagelevel} {1} ifelse
 2 lt
	{/InterpretLevel1 true def}
	{/InterpretLevel1 Level1 def}
 ifelse
%
% PostScript level 2 pattern fill definitions
%
/Level2PatternFill {
/Tile8x8 {/PaintType 2 /PatternType 1 /TilingType 1 /BBox [0 0 8 8] /XStep 8 /YStep 8}
	bind def
/KeepColor {currentrgbcolor [/Pattern /DeviceRGB] setcolorspace} bind def
<< Tile8x8
 /PaintProc {0.5 setlinewidth pop 0 0 M 8 8 L 0 8 M 8 0 L stroke} 
>> matrix makepattern
/Pat1 exch def
<< Tile8x8
 /PaintProc {0.5 setlinewidth pop 0 0 M 8 8 L 0 8 M 8 0 L stroke
	0 4 M 4 8 L 8 4 L 4 0 L 0 4 L stroke}
>> matrix makepattern
/Pat2 exch def
<< Tile8x8
 /PaintProc {0.5 setlinewidth pop 0 0 M 0 8 L
	8 8 L 8 0 L 0 0 L fill}
>> matrix makepattern
/Pat3 exch def
<< Tile8x8
 /PaintProc {0.5 setlinewidth pop -4 8 M 8 -4 L
	0 12 M 12 0 L stroke}
>> matrix makepattern
/Pat4 exch def
<< Tile8x8
 /PaintProc {0.5 setlinewidth pop -4 0 M 8 12 L
	0 -4 M 12 8 L stroke}
>> matrix makepattern
/Pat5 exch def
<< Tile8x8
 /PaintProc {0.5 setlinewidth pop -2 8 M 4 -4 L
	0 12 M 8 -4 L 4 12 M 10 0 L stroke}
>> matrix makepattern
/Pat6 exch def
<< Tile8x8
 /PaintProc {0.5 setlinewidth pop -2 0 M 4 12 L
	0 -4 M 8 12 L 4 -4 M 10 8 L stroke}
>> matrix makepattern
/Pat7 exch def
<< Tile8x8
 /PaintProc {0.5 setlinewidth pop 8 -2 M -4 4 L
	12 0 M -4 8 L 12 4 M 0 10 L stroke}
>> matrix makepattern
/Pat8 exch def
<< Tile8x8
 /PaintProc {0.5 setlinewidth pop 0 -2 M 12 4 L
	-4 0 M 12 8 L -4 4 M 8 10 L stroke}
>> matrix makepattern
/Pat9 exch def
/Pattern1 {PatternBgnd KeepColor Pat1 setpattern} bind def
/Pattern2 {PatternBgnd KeepColor Pat2 setpattern} bind def
/Pattern3 {PatternBgnd KeepColor Pat3 setpattern} bind def
/Pattern4 {PatternBgnd KeepColor Landscape {Pat5} {Pat4} ifelse setpattern} bind def
/Pattern5 {PatternBgnd KeepColor Landscape {Pat4} {Pat5} ifelse setpattern} bind def
/Pattern6 {PatternBgnd KeepColor Landscape {Pat9} {Pat6} ifelse setpattern} bind def
/Pattern7 {PatternBgnd KeepColor Landscape {Pat8} {Pat7} ifelse setpattern} bind def
} def
%
%
%End of PostScript Level 2 code
%
/PatternBgnd {
  TransparentPatterns {} {gsave 1 setgray fill grestore} ifelse
} def
%
% Substitute for Level 2 pattern fill codes with
% grayscale if Level 2 support is not selected.
%
/Level1PatternFill {
/Pattern1 {0.250 Density} bind def
/Pattern2 {0.500 Density} bind def
/Pattern3 {0.750 Density} bind def
/Pattern4 {0.125 Density} bind def
/Pattern5 {0.375 Density} bind def
/Pattern6 {0.625 Density} bind def
/Pattern7 {0.875 Density} bind def
} def
%
% Now test for support of Level 2 code
%
Level1 {Level1PatternFill} {Level2PatternFill} ifelse
%
/Symbol-Oblique /Symbol findfont [1 0 .167 1 0 0] makefont
dup length dict begin {1 index /FID eq {pop pop} {def} ifelse} forall
currentdict end definefont pop
/MFshow {
   { dup 5 get 3 ge
     { 5 get 3 eq {gsave} {grestore} ifelse }
     {dup dup 0 get findfont exch 1 get scalefont setfont
     [ currentpoint ] exch dup 2 get 0 exch R dup 5 get 2 ne {dup dup 6
     get exch 4 get {Gshow} {stringwidth pop 0 R} ifelse }if dup 5 get 0 eq
     {dup 3 get {2 get neg 0 exch R pop} {pop aload pop M} ifelse} {dup 5
     get 1 eq {dup 2 get exch dup 3 get exch 6 get stringwidth pop -2 div
     dup 0 R} {dup 6 get stringwidth pop -2 div 0 R 6 get
     show 2 index {aload pop M neg 3 -1 roll neg R pop pop} {pop pop pop
     pop aload pop M} ifelse }ifelse }ifelse }
     ifelse }
   forall} def
/Gswidth {dup type /stringtype eq {stringwidth} {pop (n) stringwidth} ifelse} def
/MFwidth {0 exch { dup 5 get 3 ge { 5 get 3 eq { 0 } { pop } ifelse }
 {dup 3 get{dup dup 0 get findfont exch 1 get scalefont setfont
     6 get Gswidth pop add} {pop} ifelse} ifelse} forall} def
/MLshow { currentpoint stroke M
  0 exch R
  Blacktext {gsave 0 setgray MFshow grestore} {MFshow} ifelse } bind def
/MRshow { currentpoint stroke M
  exch dup MFwidth neg 3 -1 roll R
  Blacktext {gsave 0 setgray MFshow grestore} {MFshow} ifelse } bind def
/MCshow { currentpoint stroke M
  exch dup MFwidth -2 div 3 -1 roll R
  Blacktext {gsave 0 setgray MFshow grestore} {MFshow} ifelse } bind def
/XYsave    { [( ) 1 2 true false 3 ()] } bind def
/XYrestore { [( ) 1 2 true false 4 ()] } bind def
Level1 SuppressPDFMark or 
{} {
/SDict 10 dict def
systemdict /pdfmark known not {
  userdict /pdfmark systemdict /cleartomark get put
} if
SDict begin [
  /Title (energy_Cr2_2z_28e.eps)
  /Subject (gnuplot plot)
  /Creator (gnuplot 4.6 patchlevel 4)
  /Author (cyrus)
%  /Producer (gnuplot)
%  /Keywords ()
  /CreationDate (Mon Oct 16 09:29:33 2017)
  /DOCINFO pdfmark
end
} ifelse
end
%%EndProlog
%%Page: 1 1
gnudict begin
gsave
doclip
50 50 translate
0.050 0.050 scale
0 setgray
newpath
(Times-Roman) findfont 200 scalefont setfont
BackgroundColor 0 lt 3 1 roll 0 lt exch 0 lt or or not {BackgroundColor C 1.000 0 0 7200.00 5040.00 BoxColFill} if
1.000 UL
LTb
LCb setrgbcolor
1100 640 M
63 0 V
5676 0 R
-63 0 V
stroke
980 640 M
[ [(Times-Roman) 200.0 0.0 true true 0 (-0.06)]
] -66.7 MRshow
1.000 UL
LTb
LCb setrgbcolor
1100 1273 M
63 0 V
5676 0 R
-63 0 V
stroke
980 1273 M
[ [(Times-Roman) 200.0 0.0 true true 0 (-0.04)]
] -66.7 MRshow
1.000 UL
LTb
LCb setrgbcolor
1100 1906 M
63 0 V
5676 0 R
-63 0 V
stroke
980 1906 M
[ [(Times-Roman) 200.0 0.0 true true 0 (-0.02)]
] -66.7 MRshow
1.000 UL
LTb
LCb setrgbcolor
1100 2540 M
63 0 V
5676 0 R
-63 0 V
stroke
980 2540 M
[ [(Times-Roman) 200.0 0.0 true true 0 ( 0)]
] -66.7 MRshow
1.000 UL
LTb
LCb setrgbcolor
1100 3173 M
63 0 V
5676 0 R
-63 0 V
stroke
980 3173 M
[ [(Times-Roman) 200.0 0.0 true true 0 ( 0.02)]
] -66.7 MRshow
1.000 UL
LTb
LCb setrgbcolor
1100 3806 M
63 0 V
5676 0 R
-63 0 V
stroke
980 3806 M
[ [(Times-Roman) 200.0 0.0 true true 0 ( 0.04)]
] -66.7 MRshow
1.000 UL
LTb
LCb setrgbcolor
1100 4439 M
63 0 V
5676 0 R
-63 0 V
stroke
980 4439 M
[ [(Times-Roman) 200.0 0.0 true true 0 ( 0.06)]
] -66.7 MRshow
1.000 UL
LTb
LCb setrgbcolor
1100 640 M
0 63 V
0 3736 R
0 -63 V
stroke
1100 440 M
[ [(Times-Roman) 200.0 0.0 true true 0 ( 1.4)]
] -66.7 MCshow
1.000 UL
LTb
LCb setrgbcolor
1674 640 M
0 63 V
0 3736 R
0 -63 V
stroke
1674 440 M
[ [(Times-Roman) 200.0 0.0 true true 0 ( 1.6)]
] -66.7 MCshow
1.000 UL
LTb
LCb setrgbcolor
2248 640 M
0 63 V
0 3736 R
0 -63 V
stroke
2248 440 M
[ [(Times-Roman) 200.0 0.0 true true 0 ( 1.8)]
] -66.7 MCshow
1.000 UL
LTb
LCb setrgbcolor
2822 640 M
0 63 V
0 3736 R
0 -63 V
stroke
2822 440 M
[ [(Times-Roman) 200.0 0.0 true true 0 ( 2)]
] -66.7 MCshow
1.000 UL
LTb
LCb setrgbcolor
3396 640 M
0 63 V
0 3736 R
0 -63 V
stroke
3396 440 M
[ [(Times-Roman) 200.0 0.0 true true 0 ( 2.2)]
] -66.7 MCshow
1.000 UL
LTb
LCb setrgbcolor
3970 640 M
0 63 V
0 3736 R
0 -63 V
stroke
3970 440 M
[ [(Times-Roman) 200.0 0.0 true true 0 ( 2.4)]
] -66.7 MCshow
1.000 UL
LTb
LCb setrgbcolor
4543 640 M
0 63 V
0 3736 R
0 -63 V
stroke
4543 440 M
[ [(Times-Roman) 200.0 0.0 true true 0 ( 2.6)]
] -66.7 MCshow
1.000 UL
LTb
LCb setrgbcolor
5117 640 M
0 63 V
0 3736 R
0 -63 V
stroke
5117 440 M
[ [(Times-Roman) 200.0 0.0 true true 0 ( 2.8)]
] -66.7 MCshow
1.000 UL
LTb
LCb setrgbcolor
5691 640 M
0 63 V
0 3736 R
0 -63 V
stroke
5691 440 M
[ [(Times-Roman) 200.0 0.0 true true 0 ( 3)]
] -66.7 MCshow
1.000 UL
LTb
LCb setrgbcolor
6265 640 M
0 63 V
0 3736 R
0 -63 V
stroke
6265 440 M
[ [(Times-Roman) 200.0 0.0 true true 0 ( 3.2)]
] -66.7 MCshow
1.000 UL
LTb
LCb setrgbcolor
6839 640 M
0 63 V
0 3736 R
0 -63 V
stroke
6839 440 M
[ [(Times-Roman) 200.0 0.0 true true 0 ( 3.4)]
] -66.7 MCshow
1.000 UL
LTb
LCb setrgbcolor
1.000 UL
LTb
LCb setrgbcolor
1100 4439 N
0 -3799 V
5739 0 V
0 3799 V
-5739 0 V
Z stroke
LCb setrgbcolor
160 2539 M
currentpoint gsave translate -270 rotate 0 0 moveto
[ [(Times-Roman) 200.0 0.0 true true 0 (E \(Ha\))]
] -66.7 MCshow
grestore
LTb
LCb setrgbcolor
3969 140 M
[ [(Times-Roman) 200.0 0.0 true true 0 (r \(Angstrom\))]
] -66.7 MCshow
LTb
3969 4739 M
[ [(Times-Roman) 200.0 0.0 true true 0 (Potential surface of Cr)]
[(Times-Roman) 160.0 -60.0 true true 0 (2)]
[(Times-Roman) 200.0 0.0 true true 0 ( with DK Ham, cc-pV\(D/T\)Z-DK basis, 12e, HCI NOs)]
] -46.7 MCshow
1.000 UP
1.000 UL
LTb
LCb setrgbcolor
% Begin plot #1
0.400 UP
1.000 UL
LT0
0.00 0.00 0.00 C LCb setrgbcolor
6416 4291 M
[ [(Times-Roman) 120.0 0.0 true true 0 (E)]
[(Times-Roman) 96.0 -36.0 true true 0 (exp)]
] -28.0 MRshow
LT0
0.00 0.00 0.00 C 6536 4291 M
183 0 V
1323 1843 M
6 -55 V
10 -46 V
12 -52 V
10 -56 V
14 -59 V
16 -68 V
15 -63 V
12 -55 V
12 -50 V
19 -59 V
12 -50 V
20 -53 V
22 -56 V
28 -60 V
27 -57 V
27 -56 V
29 -47 V
40 -47 V
53 -60 V
38 -28 V
44 -17 V
44 -16 V
54 -7 V
59 4 V
79 15 V
62 21 V
57 24 V
59 26 V
42 29 V
83 42 V
83 41 V
83 37 V
83 36 V
84 32 V
83 32 V
83 29 V
83 25 V
83 22 V
83 20 V
84 19 V
83 16 V
83 16 V
83 14 V
84 13 V
83 12 V
83 10 V
84 11 V
83 10 V
83 8 V
83 9 V
84 8 V
83 8 V
83 7 V
84 6 V
83 7 V
83 5 V
84 8 V
83 7 V
83 6 V
84 6 V
83 7 V
83 7 V
84 7 V
83 7 V
83 7 V
84 8 V
83 9 V
83 12 V
84 15 V
83 21 V
83 25 V
83 31 V
83 30 V
83 30 V
83 31 V
84 28 V
83 30 V
83 31 V
83 30 V
83 30 V
83 28 V
83 29 V
84 32 V
45 15 V
1323 1843 Pls
1329 1788 Pls
1339 1742 Pls
1351 1690 Pls
1361 1634 Pls
1375 1575 Pls
1391 1507 Pls
1406 1444 Pls
1418 1389 Pls
1430 1339 Pls
1449 1280 Pls
1461 1230 Pls
1481 1177 Pls
1503 1121 Pls
1531 1061 Pls
1558 1004 Pls
1585 948 Pls
1614 901 Pls
1654 854 Pls
1707 794 Pls
1745 766 Pls
1789 749 Pls
1833 733 Pls
1887 726 Pls
1946 730 Pls
2025 745 Pls
2087 766 Pls
2144 790 Pls
2203 816 Pls
2245 845 Pls
2328 887 Pls
2411 928 Pls
2494 965 Pls
2577 1001 Pls
2661 1033 Pls
2744 1065 Pls
2827 1094 Pls
2910 1119 Pls
2993 1141 Pls
3076 1161 Pls
3160 1180 Pls
3243 1196 Pls
3326 1212 Pls
3409 1226 Pls
3493 1239 Pls
3576 1251 Pls
3659 1261 Pls
3743 1272 Pls
3826 1282 Pls
3909 1290 Pls
3992 1299 Pls
4076 1307 Pls
4159 1315 Pls
4242 1322 Pls
4326 1328 Pls
4409 1335 Pls
4492 1340 Pls
4576 1348 Pls
4659 1355 Pls
4742 1361 Pls
4826 1367 Pls
4909 1374 Pls
4992 1381 Pls
5076 1388 Pls
5159 1395 Pls
5242 1402 Pls
5326 1410 Pls
5409 1419 Pls
5492 1431 Pls
5576 1446 Pls
5659 1467 Pls
5742 1492 Pls
5825 1523 Pls
5908 1553 Pls
5991 1583 Pls
6074 1614 Pls
6158 1642 Pls
6241 1672 Pls
6324 1703 Pls
6407 1733 Pls
6490 1763 Pls
6573 1791 Pls
6656 1820 Pls
6740 1852 Pls
6785 1867 Pls
6627 4291 Pls
% End plot #1
% Begin plot #2
0.400 UP
1.000 UL
LT1
0.00 0.00 0.00 C LCb setrgbcolor
6416 4071 M
[ [(Times-Roman) 120.0 0.0 true true 0 (E)]
[(Times-Roman) 96.0 -36.0 true true 0 (exp Guo)]
] -28.0 MRshow
LT1
0.00 0.00 0.00 C 6536 4071 M
183 0 V
1323 1945 M
6 -56 V
10 -46 V
12 -52 V
10 -56 V
14 -59 V
16 -68 V
15 -63 V
12 -55 V
12 -50 V
19 -59 V
12 -50 V
20 -53 V
22 -56 V
28 -60 V
27 -56 V
27 -57 V
29 -47 V
40 -46 V
53 -61 V
38 -28 V
44 -17 V
44 -16 V
54 -7 V
59 4 V
79 15 V
62 21 V
57 24 V
59 26 V
42 30 V
83 41 V
83 41 V
83 38 V
83 35 V
84 33 V
83 31 V
83 29 V
83 25 V
83 22 V
83 21 V
84 18 V
83 16 V
83 16 V
83 15 V
84 12 V
83 12 V
83 10 V
84 11 V
83 10 V
83 8 V
83 9 V
84 8 V
83 8 V
83 7 V
84 6 V
83 7 V
83 5 V
84 8 V
83 7 V
83 7 V
84 6 V
83 6 V
83 7 V
84 7 V
83 7 V
83 8 V
84 8 V
83 8 V
83 12 V
84 15 V
83 21 V
83 25 V
83 31 V
83 30 V
83 31 V
83 30 V
84 28 V
83 30 V
83 31 V
83 30 V
83 30 V
83 28 V
83 30 V
84 31 V
45 15 V
1323 1945 Crs
1329 1889 Crs
1339 1843 Crs
1351 1791 Crs
1361 1735 Crs
1375 1676 Crs
1391 1608 Crs
1406 1545 Crs
1418 1490 Crs
1430 1440 Crs
1449 1381 Crs
1461 1331 Crs
1481 1278 Crs
1503 1222 Crs
1531 1162 Crs
1558 1106 Crs
1585 1049 Crs
1614 1002 Crs
1654 956 Crs
1707 895 Crs
1745 867 Crs
1789 850 Crs
1833 834 Crs
1887 827 Crs
1946 831 Crs
2025 846 Crs
2087 867 Crs
2144 891 Crs
2203 917 Crs
2245 947 Crs
2328 988 Crs
2411 1029 Crs
2494 1067 Crs
2577 1102 Crs
2661 1135 Crs
2744 1166 Crs
2827 1195 Crs
2910 1220 Crs
2993 1242 Crs
3076 1263 Crs
3160 1281 Crs
3243 1297 Crs
3326 1313 Crs
3409 1328 Crs
3493 1340 Crs
3576 1352 Crs
3659 1362 Crs
3743 1373 Crs
3826 1383 Crs
3909 1391 Crs
3992 1400 Crs
4076 1408 Crs
4159 1416 Crs
4242 1423 Crs
4326 1429 Crs
4409 1436 Crs
4492 1441 Crs
4576 1449 Crs
4659 1456 Crs
4742 1463 Crs
4826 1469 Crs
4909 1475 Crs
4992 1482 Crs
5076 1489 Crs
5159 1496 Crs
5242 1504 Crs
5326 1512 Crs
5409 1520 Crs
5492 1532 Crs
5576 1547 Crs
5659 1568 Crs
5742 1593 Crs
5825 1624 Crs
5908 1654 Crs
5991 1685 Crs
6074 1715 Crs
6158 1743 Crs
6241 1773 Crs
6324 1804 Crs
6407 1834 Crs
6490 1864 Crs
6573 1892 Crs
6656 1922 Crs
6740 1953 Crs
6785 1968 Crs
6627 4071 Crs
% End plot #2
% Begin plot #3
0.400 UP
1.000 UL
LT2
1.00 0.65 0.00 C LCb setrgbcolor
6416 3851 M
[ [(Times-Roman) 120.0 0.0 true true 0 (E \(DMRG-NEVPT2, Guo et al\) basis limit)]
] -40.0 MRshow
LT2
1.00 0.65 0.00 C 1387 1462 Star
1530 1091 Star
1674 917 Star
1817 870 Star
1961 890 Star
2104 936 Star
2248 996 Star
2391 1058 Star
2535 1096 Star
2822 1221 Star
3396 1369 Star
3969 1409 Star
4543 1495 Star
5117 1615 Star
5691 1762 Star
6627 3851 Star
% End plot #3
% Begin plot #4
1.000 UL
LT3
1.00 0.65 0.00 C 1387 1462 M
43 -125 V
44 -117 V
43 -102 V
44 -81 V
43 -59 V
44 -42 V
43 -30 V
44 -20 V
43 -11 V
44 -5 V
43 2 V
44 6 V
43 9 V
44 12 V
43 14 V
44 15 V
43 17 V
44 17 V
43 18 V
43 20 V
44 20 V
43 20 V
44 17 V
43 13 V
44 11 V
43 10 V
44 14 V
43 16 V
44 18 V
43 20 V
44 21 V
43 21 V
44 20 V
43 18 V
44 18 V
43 15 V
44 15 V
43 13 V
44 12 V
43 11 V
44 10 V
43 9 V
43 7 V
44 7 V
43 7 V
44 5 V
43 5 V
44 4 V
43 3 V
44 3 V
43 3 V
44 3 V
43 2 V
44 2 V
43 3 V
44 2 V
43 3 V
44 3 V
43 4 V
44 4 V
43 4 V
44 5 V
43 6 V
43 5 V
44 7 V
43 6 V
44 7 V
43 7 V
44 8 V
43 7 V
44 8 V
43 8 V
44 8 V
43 9 V
44 8 V
43 8 V
44 9 V
43 9 V
44 9 V
43 9 V
44 9 V
43 10 V
44 9 V
43 10 V
44 10 V
43 10 V
43 10 V
44 11 V
43 11 V
44 11 V
43 11 V
44 11 V
43 11 V
44 12 V
43 11 V
44 12 V
43 11 V
44 12 V
43 11 V
% End plot #4
% Begin plot #5
0.900 UP
stroke
LT4
1.00 0.00 0.00 C LCb setrgbcolor
6416 3631 M
[ [(Times-Roman) 120.0 0.0 true true 0 (E)]
[(Times-Roman) 96.0 -36.0 true true 0 (var)]
[(Times-Roman) 120.0 0.0 true true 0 (\()]
[(Symbol) 120.0 0.0 true true 0 (e)]
[(Times-Roman) 96.0 -36.0 true true 0 (1)]
[(Times-Roman) 120.0 0.0 true true 0 (=1e-4\) L)]
[(Times-Roman) 96.0 -36.0 true true 0 (z)]
[(Times-Roman) 120.0 0.0 true true 0 ( 2z +2099.85064)]
] -28.0 MRshow
LT4
1.00 0.00 0.00 C 1387 3996 BoxF
1530 3561 BoxF
1674 3359 BoxF
1903 3351 BoxF
2248 3672 BoxF
2822 4270 BoxF
4256 4346 BoxF
4974 4340 BoxF
5691 4417 BoxF
6627 3631 BoxF
% End plot #5
% Begin plot #6
1.000 UL
LT5
1.00 0.00 0.00 C 1387 3996 M
51 -170 V
50 -156 V
51 -128 V
51 -93 V
51 -62 V
50 -40 V
51 -21 V
51 -6 V
50 7 V
51 19 V
51 29 V
51 37 V
50 43 V
51 49 V
51 54 V
51 57 V
50 58 V
51 60 V
51 59 V
50 59 V
51 59 V
51 57 V
51 56 V
50 53 V
51 51 V
51 48 V
50 44 V
51 40 V
51 36 V
51 31 V
50 27 V
51 23 V
51 19 V
51 16 V
50 13 V
51 10 V
39 5 V
331 0 R
36 -3 V
51 -6 V
50 -7 V
51 -7 V
51 -7 V
50 -8 V
51 -8 V
51 -8 V
51 -8 V
50 -7 V
51 -8 V
51 -6 V
50 -7 V
51 -5 V
51 -5 V
51 -3 V
50 -3 V
51 -3 V
51 -1 V
51 -1 V
50 0 V
51 0 V
51 1 V
50 2 V
51 2 V
51 2 V
51 3 V
50 3 V
51 4 V
51 4 V
50 4 V
51 5 V
51 5 V
51 5 V
50 6 V
51 6 V
51 6 V
51 6 V
50 6 V
51 7 V
51 6 V
50 7 V
51 7 V
51 7 V
50 7 V
% End plot #6
% Begin plot #7
0.900 UP
stroke
LT6
0.00 1.00 0.00 C LCb setrgbcolor
6416 3411 M
[ [(Times-Roman) 120.0 0.0 true true 0 (E)]
[(Times-Roman) 96.0 -36.0 true true 0 (var)]
[(Times-Roman) 120.0 0.0 true true 0 (\()]
[(Symbol) 120.0 0.0 true true 0 (e)]
[(Times-Roman) 96.0 -36.0 true true 0 (1)]
[(Times-Roman) 120.0 0.0 true true 0 (=1e-4\) L)]
[(Times-Roman) 96.0 -36.0 true true 0 (z)]
[(Times-Roman) 120.0 0.0 true true 0 ( 2z +2099.85064)]
] -28.0 MRshow
LT6
0.00 1.00 0.00 C 1387 1974 CircleF
1530 1533 CircleF
1674 1302 CircleF
1903 1221 CircleF
2248 1398 CircleF
2822 1755 CircleF
3539 1970 CircleF
4256 2004 CircleF
4974 2105 CircleF
5691 2274 CircleF
6409 2447 CircleF
6627 3411 CircleF
% End plot #7
% Begin plot #8
1.000 UL
LT7
0.00 1.00 0.00 C 1387 1974 M
51 -171 V
50 -158 V
51 -133 V
51 -101 V
51 -73 V
50 -52 V
51 -36 V
51 -22 V
50 -10 V
51 2 V
51 9 V
51 18 V
50 23 V
51 28 V
51 32 V
51 34 V
50 35 V
51 35 V
51 35 V
50 35 V
51 33 V
51 34 V
51 32 V
50 31 V
51 31 V
51 29 V
50 28 V
51 26 V
51 25 V
51 24 V
50 21 V
51 21 V
51 19 V
51 17 V
50 16 V
51 15 V
51 14 V
50 12 V
51 11 V
51 9 V
51 9 V
50 7 V
51 6 V
51 5 V
51 4 V
50 3 V
51 2 V
51 2 V
50 2 V
51 1 V
51 1 V
51 2 V
50 1 V
51 1 V
51 2 V
50 2 V
51 3 V
51 4 V
51 4 V
50 5 V
51 6 V
51 6 V
51 7 V
50 7 V
51 8 V
51 8 V
50 9 V
51 9 V
51 10 V
51 10 V
50 10 V
51 11 V
51 11 V
50 11 V
51 12 V
51 11 V
51 12 V
50 12 V
51 13 V
51 12 V
51 13 V
50 12 V
51 13 V
51 12 V
50 13 V
51 12 V
51 12 V
51 13 V
50 12 V
51 13 V
51 12 V
51 12 V
50 12 V
51 12 V
51 13 V
50 12 V
51 12 V
51 12 V
51 12 V
% End plot #8
% Begin plot #9
0.900 UP
stroke
LT8
1.00 0.00 0.00 C LCb setrgbcolor
6416 3191 M
[ [(Times-Roman) 120.0 0.0 true true 0 (E)]
[(Times-Roman) 96.0 -36.0 true true 0 (var)]
[(Times-Roman) 120.0 0.0 true true 0 (\()]
[(Symbol) 120.0 0.0 true true 0 (e)]
[(Times-Roman) 96.0 -36.0 true true 0 (1)]
[(Times-Roman) 120.0 0.0 true true 0 (=5e-5\) L)]
[(Times-Roman) 96.0 -36.0 true true 0 (z)]
[(Times-Roman) 120.0 0.0 true true 0 ( 2z +2099.85064)]
] -28.0 MRshow
LT8
1.00 0.00 0.00 C 1387 3391 TriUF
1530 2952 TriUF
1674 2741 TriUF
1903 2713 TriUF
2248 3002 TriUF
2822 3564 TriUF
3539 3895 TriUF
4256 3906 TriUF
4974 3942 TriUF
5691 4052 TriUF
6409 4189 TriUF
6627 3191 TriUF
% End plot #9
% Begin plot #10
1.000 UL
LT0
1.00 0.00 0.00 C 1387 3391 M
51 -171 V
50 -158 V
51 -130 V
51 -95 V
51 -66 V
50 -43 V
51 -25 V
51 -11 V
50 3 V
51 14 V
51 24 V
51 32 V
50 40 V
51 44 V
51 49 V
51 52 V
50 53 V
51 54 V
51 54 V
50 53 V
51 53 V
51 53 V
51 51 V
50 50 V
51 48 V
51 47 V
50 44 V
51 43 V
51 39 V
51 38 V
50 34 V
51 32 V
51 30 V
51 27 V
50 25 V
51 22 V
51 21 V
50 18 V
51 16 V
51 14 V
51 12 V
50 10 V
51 9 V
51 6 V
51 5 V
50 3 V
51 2 V
51 1 V
50 0 V
51 0 V
51 -1 V
51 -2 V
50 -2 V
51 -2 V
51 -1 V
50 -2 V
51 -1 V
51 0 V
51 0 V
50 0 V
51 1 V
51 2 V
51 2 V
50 2 V
51 3 V
51 4 V
50 4 V
51 4 V
51 5 V
51 5 V
50 6 V
51 6 V
51 6 V
50 7 V
51 7 V
51 7 V
51 8 V
50 7 V
51 8 V
51 9 V
51 8 V
50 9 V
51 9 V
51 9 V
50 9 V
51 9 V
51 10 V
51 9 V
50 10 V
51 9 V
51 10 V
51 10 V
50 10 V
51 9 V
51 10 V
50 10 V
51 10 V
51 10 V
51 10 V
% End plot #10
% Begin plot #11
0.900 UP
stroke
LT1
0.00 1.00 0.00 C LCb setrgbcolor
6416 2971 M
[ [(Times-Roman) 120.0 0.0 true true 0 (E)]
[(Times-Roman) 96.0 -36.0 true true 0 (var)]
[(Times-Roman) 120.0 0.0 true true 0 (\()]
[(Symbol) 120.0 0.0 true true 0 (e)]
[(Times-Roman) 96.0 -36.0 true true 0 (1)]
[(Times-Roman) 120.0 0.0 true true 0 (=5e-5\) L)]
[(Times-Roman) 96.0 -36.0 true true 0 (z)]
[(Times-Roman) 120.0 0.0 true true 0 ( 2z +2099.85064)]
] -28.0 MRshow
LT1
0.00 1.00 0.00 C 1387 1895 TriDF
1530 1437 TriDF
1674 1196 TriDF
1903 1095 TriDF
2248 1237 TriDF
2822 1550 TriDF
3539 1765 TriDF
4256 1833 TriDF
4974 1953 TriDF
5691 2139 TriDF
6409 2335 TriDF
6627 2971 TriDF
% End plot #11
% Begin plot #12
1.000 UL
LT2
0.00 1.00 0.00 C 1387 1895 M
51 -177 V
50 -164 V
51 -138 V
51 -105 V
51 -76 V
50 -56 V
51 -40 V
51 -27 V
50 -14 V
51 -4 V
51 5 V
51 12 V
50 18 V
51 23 V
51 27 V
51 29 V
50 30 V
51 30 V
51 30 V
50 30 V
51 29 V
51 29 V
51 28 V
50 28 V
51 27 V
51 26 V
50 25 V
51 23 V
51 23 V
51 22 V
50 20 V
51 20 V
51 18 V
51 17 V
50 16 V
51 15 V
51 14 V
50 12 V
51 12 V
51 11 V
51 10 V
50 9 V
51 8 V
51 7 V
51 6 V
50 6 V
51 5 V
51 4 V
50 4 V
51 4 V
51 4 V
51 4 V
50 4 V
51 4 V
51 4 V
50 4 V
51 5 V
51 6 V
51 6 V
50 7 V
51 7 V
51 7 V
51 8 V
50 9 V
51 9 V
51 9 V
50 10 V
51 10 V
51 11 V
51 11 V
50 11 V
51 12 V
51 12 V
50 12 V
51 13 V
51 13 V
51 13 V
50 13 V
51 14 V
51 13 V
51 14 V
50 14 V
51 14 V
51 14 V
50 14 V
51 13 V
51 14 V
51 14 V
50 14 V
51 14 V
51 14 V
51 14 V
50 14 V
51 13 V
51 14 V
50 14 V
51 14 V
51 14 V
51 14 V
% End plot #12
% Begin plot #13
0.900 UP
stroke
LT3
1.00 0.00 0.00 C LCb setrgbcolor
6416 2751 M
[ [(Times-Roman) 120.0 0.0 true true 0 (E)]
[(Times-Roman) 96.0 -36.0 true true 0 (var)]
[(Times-Roman) 120.0 0.0 true true 0 (\()]
[(Symbol) 120.0 0.0 true true 0 (e)]
[(Times-Roman) 96.0 -36.0 true true 0 (1)]
[(Times-Roman) 120.0 0.0 true true 0 (=2.5e-5\) L)]
[(Times-Roman) 96.0 -36.0 true true 0 (z)]
[(Times-Roman) 120.0 0.0 true true 0 ( 2z +2099.85064)]
] -28.0 MRshow
LT3
1.00 0.00 0.00 C 1387 2937 DiaF
1530 2490 DiaF
1674 2267 DiaF
1903 2215 DiaF
2248 2458 DiaF
2822 2966 DiaF
3539 3301 DiaF
4256 3386 DiaF
4974 3454 DiaF
5691 3583 DiaF
6409 3761 DiaF
6627 2751 DiaF
% End plot #13
% Begin plot #14
1.000 UL
LT4
1.00 0.00 0.00 C 1387 2937 M
51 -173 V
50 -161 V
51 -133 V
51 -99 V
51 -70 V
50 -48 V
51 -31 V
51 -16 V
50 -2 V
51 8 V
51 18 V
51 26 V
50 32 V
51 38 V
51 42 V
51 45 V
50 47 V
51 47 V
51 48 V
50 48 V
51 47 V
51 47 V
51 46 V
50 46 V
51 44 V
51 43 V
50 41 V
51 39 V
51 37 V
51 34 V
50 33 V
51 31 V
51 28 V
51 27 V
50 24 V
51 23 V
51 21 V
50 20 V
51 18 V
51 16 V
51 15 V
50 13 V
51 12 V
51 11 V
51 9 V
50 9 V
51 7 V
51 7 V
50 6 V
51 5 V
51 4 V
51 5 V
50 3 V
51 4 V
51 3 V
50 4 V
51 3 V
51 3 V
51 4 V
50 4 V
51 4 V
51 4 V
51 4 V
50 5 V
51 5 V
51 5 V
50 5 V
51 6 V
51 6 V
51 6 V
50 7 V
51 7 V
51 7 V
50 8 V
51 8 V
51 9 V
51 8 V
50 9 V
51 10 V
51 10 V
51 10 V
50 10 V
51 11 V
51 11 V
50 11 V
51 11 V
51 12 V
51 12 V
50 12 V
51 12 V
51 13 V
51 13 V
50 13 V
51 12 V
51 13 V
50 14 V
51 13 V
51 13 V
51 13 V
% End plot #14
% Begin plot #15
0.900 UP
stroke
LT5
0.00 1.00 0.00 C LCb setrgbcolor
6416 2531 M
[ [(Times-Roman) 120.0 0.0 true true 0 (E)]
[(Times-Roman) 96.0 -36.0 true true 0 (var)]
[(Times-Roman) 120.0 0.0 true true 0 (\()]
[(Symbol) 120.0 0.0 true true 0 (e)]
[(Times-Roman) 96.0 -36.0 true true 0 (1)]
[(Times-Roman) 120.0 0.0 true true 0 (=2.5e-5\) L)]
[(Times-Roman) 96.0 -36.0 true true 0 (z)]
[(Times-Roman) 120.0 0.0 true true 0 ( 2z +2099.85064)]
] -28.0 MRshow
LT5
0.00 1.00 0.00 C 1387 1833 PentF
1530 1371 PentF
1674 1116 PentF
1903 997 PentF
2248 1113 PentF
2822 1399 PentF
3539 1604 PentF
4256 1691 PentF
4974 1830 PentF
5691 2023 PentF
6409 2228 PentF
6627 2531 PentF
% End plot #15
% Begin plot #16
1.000 UL
LT6
0.00 1.00 0.00 C 1387 1833 M
51 -178 V
50 -165 V
51 -141 V
51 -109 V
51 -82 V
50 -61 V
51 -44 V
51 -30 V
50 -18 V
51 -8 V
51 1 V
51 8 V
50 14 V
51 19 V
51 23 V
51 25 V
50 27 V
51 27 V
51 27 V
50 27 V
51 26 V
51 27 V
51 26 V
50 25 V
51 25 V
51 24 V
50 23 V
51 22 V
51 21 V
51 20 V
50 19 V
51 18 V
51 17 V
51 16 V
50 15 V
51 14 V
51 14 V
50 12 V
51 11 V
51 11 V
51 10 V
50 9 V
51 8 V
51 8 V
51 7 V
50 7 V
51 6 V
51 6 V
50 5 V
51 6 V
51 5 V
51 6 V
50 5 V
51 6 V
51 6 V
50 6 V
51 7 V
51 7 V
51 8 V
50 8 V
51 9 V
51 9 V
51 9 V
50 10 V
51 11 V
51 10 V
50 11 V
51 12 V
51 11 V
51 12 V
50 12 V
51 13 V
51 13 V
50 13 V
51 13 V
51 13 V
51 14 V
50 13 V
51 14 V
51 14 V
51 14 V
50 15 V
51 14 V
51 14 V
50 15 V
51 14 V
51 15 V
51 14 V
50 14 V
51 15 V
51 14 V
51 15 V
50 15 V
51 14 V
51 15 V
50 14 V
51 15 V
51 14 V
51 15 V
% End plot #16
% Begin plot #17
0.400 UP
stroke
LT7
1.00 0.00 1.00 C LCb setrgbcolor
6416 2311 M
[ [(Times-Roman) 120.0 0.0 true true 0 (E)]
[(Times-Roman) 96.0 -36.0 true true 0 (extrap)]
[(Times-Roman) 120.0 0.0 true true 0 ( \(quadratic\) L)]
[(Times-Roman) 96.0 -36.0 true true 0 (z)]
[(Times-Roman) 120.0 0.0 true true 0 ( 2z +2099.85064)]
] -28.0 MRshow
LT7
1.00 0.00 1.00 C 1387 1608 C1
1530 1215 C1
1674 880 C1
1903 664 C1
2248 769 C1
2822 1116 C1
3539 1270 C1
4256 1339 C1
4974 1515 C1
5691 1734 C1
6409 1961 C1
6627 2311 C1
% End plot #17
% Begin plot #18
3.000 UL
LT8
1.00 0.00 1.00 C 1387 1608 M
51 -141 V
50 -139 V
51 -136 V
51 -129 V
51 -117 V
50 -97 V
51 -73 V
51 -54 V
50 -35 V
51 -21 V
51 -8 V
51 2 V
50 10 V
51 18 V
51 24 V
51 27 V
50 30 V
51 32 V
51 33 V
50 33 V
51 33 V
51 33 V
51 32 V
50 32 V
51 31 V
51 29 V
50 27 V
51 25 V
51 23 V
51 20 V
50 18 V
51 16 V
51 15 V
51 12 V
50 11 V
51 9 V
51 8 V
50 7 V
51 6 V
51 5 V
51 5 V
50 4 V
51 4 V
51 4 V
51 3 V
50 4 V
51 4 V
51 4 V
50 4 V
51 4 V
51 5 V
51 5 V
50 5 V
51 7 V
51 6 V
50 8 V
51 8 V
51 9 V
51 10 V
50 10 V
51 12 V
51 11 V
51 13 V
50 12 V
51 14 V
51 13 V
50 14 V
51 15 V
51 14 V
51 15 V
50 15 V
51 15 V
51 15 V
50 15 V
51 15 V
51 16 V
51 15 V
50 15 V
51 16 V
51 16 V
51 15 V
50 16 V
51 16 V
51 16 V
50 16 V
51 15 V
51 16 V
51 16 V
50 16 V
51 16 V
51 16 V
51 16 V
50 16 V
51 16 V
51 16 V
50 16 V
51 16 V
51 17 V
51 16 V
% End plot #18
stroke
1.000 UL
LTb
LCb setrgbcolor
1100 4439 N
0 -3799 V
5739 0 V
0 3799 V
-5739 0 V
Z stroke
1.000 UP
1.000 UL
LTb
LCb setrgbcolor
stroke
grestore
end
showpage
%%Trailer
%%DocumentFonts: Symbol Times-Roman
